Welcome to Sensors Watchdog's documentation!
============================================

.. toctree::
   :maxdepth: 2
   :caption: Contents:


Synopsis
########

Description
###########

What To Monitor
###############

How To Monitor
##############

Logging
#######

Introduction text.

Sample H2
*********

Sample content.

Another H2
**********

And some text.
